id;id_course;id_delivery_man;time;adress
1;98579;neural Euro seize;43811;holistic Intelligent embrace
2;79009;Re-contextualized;26630;c
3;39703;synthesizing FTP Executif;84506;Zloty Israël
4;22624;exuding Aquitaine Architecte;42611;b encoding Bretagne
5;83933;cyan Mouse;54358;Manager RAM a
6;52098;fresh-thinking;10146;Gorgeous bandwidth
7;94394;neural Soap Account;9089;Account
8;45969;copy convergence;55149;one-to-one
9;91381;Unit FTP;60805;Intelligent Plastic
10;21714;withdrawal motivating b;78717;back-end
