{
  "applications": "*",
  "changelogDate": "20230409135505",
  "dto": "no",
  "embedded": false,
  "entityTableName": "client",
  "fields": [
    {
      "fieldName": "clientId",
      "fieldType": "Integer",
      "fieldValidateRules": ["required", "unique"]
    },
    {
      "fieldName": "name",
      "fieldType": "String",
      "fieldValidateRules": ["required"]
    },
    {
      "fieldName": "surname",
      "fieldType": "String",
      "fieldValidateRules": ["required"]
    },
    {
      "fieldName": "address",
      "fieldType": "String",
      "fieldValidateRules": ["required"]
    },
    {
      "fieldName": "email",
      "fieldType": "String",
      "fieldValidateRules": ["required", "unique", "pattern"],
      "fieldValidateRulesPattern": "^[^@\\s]+@[^@\\s]+\\.[^@\\s]+$"
    },
    {
      "fieldName": "phone",
      "fieldType": "String",
      "fieldValidateRules": ["minlength", "maxlength"],
      "fieldValidateRulesMaxlength": "10",
      "fieldValidateRulesMinlength": "10"
    },
    {
      "fieldName": "language",
      "fieldType": "Language",
      "fieldValidateRules": ["required"],
      "fieldValues": "FRENCH,ENGLISH,GREEK,ITALIAN,GERMAN"
    }
  ],
  "fluentMethods": true,
  "jpaMetamodelFiltering": false,
  "name": "Client",
  "pagination": "no",
  "readOnly": false,
  "relationships": [
    {
      "otherEntityName": "shoppingCart",
      "otherEntityRelationshipName": "client",
      "relationshipName": "shoppingCart",
      "relationshipType": "one-to-many"
    }
  ],
  "service": "no"
}
