{
  "applications": "*",
  "changelogDate": "20230409135510",
  "dto": "no",
  "embedded": false,
  "entityTableName": "cooperative",
  "fields": [
    {
      "fieldName": "id",
      "fieldType": "Long",
      "fieldValidateRules": ["unique"]
    },
    {
      "fieldName": "website",
      "fieldType": "String"
    },
    {
      "fieldName": "name",
      "fieldType": "String",
      "fieldValidateRules": ["required"]
    },
    {
      "fieldName": "adress",
      "fieldType": "String",
      "fieldValidateRules": ["required"]
    }
  ],
  "fluentMethods": true,
  "jpaMetamodelFiltering": false,
  "name": "Cooperative",
  "pagination": "no",
  "readOnly": false,
  "relationships": [
    {
      "otherEntityName": "shoppingCart",
      "otherEntityRelationshipName": "cooperative",
      "relationshipName": "shoppingCart",
      "relationshipType": "one-to-many"
    }
  ],
  "service": "no"
}
