{
  "applications": "*",
  "changelogDate": "20230409135506",
  "dto": "no",
  "embedded": false,
  "entityTableName": "course",
  "fields": [
    {
      "fieldName": "idCourse",
      "fieldType": "Long",
      "fieldValidateRules": ["required"]
    },
    {
      "fieldName": "idDeliveryMan",
      "fieldType": "String",
      "fieldValidateRules": ["required"]
    },
    {
      "fieldName": "time",
      "fieldType": "Duration",
      "fieldValidateRules": ["required"]
    },
    {
      "fieldName": "adress",
      "fieldType": "String"
    }
  ],
  "fluentMethods": true,
  "jpaMetamodelFiltering": false,
  "name": "Course",
  "pagination": "no",
  "readOnly": false,
  "relationships": [
    {
      "otherEntityName": "shoppingCart",
      "otherEntityRelationshipName": "course",
      "ownerSide": true,
      "relationshipName": "shoppingCart",
      "relationshipType": "one-to-one"
    },
    {
      "otherEntityName": "deliveryMan",
      "otherEntityRelationshipName": "course",
      "relationshipName": "deliveryMan",
      "relationshipType": "many-to-one"
    }
  ],
  "service": "no"
}
